<?xml version="1.0" encoding="UTF-8" standalone="no"?>
<svg
   xmlns:dc="http://purl.org/dc/elements/1.1/"
   xmlns:cc="http://creativecommons.org/ns#"
   xmlns:rdf="http://www.w3.org/1999/02/22-rdf-syntax-ns#"
   xmlns:svg="http://www.w3.org/2000/svg"
   xmlns="http://www.w3.org/2000/svg"
   xmlns:sodipodi="http://sodipodi.sourceforge.net/DTD/sodipodi-0.dtd"
   xmlns:inkscape="http://www.inkscape.org/namespaces/inkscape"
   width="0.50250655in"
   height="0.71649003in"
   viewBox="0 0 150.75201 214.94701"
   version="1.1"
   id="svg3"
   sodipodi:docname="mic.svg"
   inkscape:version="1.0.2 (e86c870879, 2021-01-15)">
  <metadata
     id="metadata9">
    <rdf:RDF>
      <cc:Work
         rdf:about="">
        <dc:format>image/svg+xml</dc:format>
        <dc:type
           rdf:resource="http://purl.org/dc/dcmitype/StillImage" />
      </cc:Work>
    </rdf:RDF>
  </metadata>
  <defs
     id="defs7" />
  <sodipodi:namedview
     pagecolor="#ffffff"
     bordercolor="#666666"
     borderopacity="1"
     objecttolerance="10"
     gridtolerance="10"
     guidetolerance="10"
     inkscape:pageopacity="0"
     inkscape:pageshadow="2"
     inkscape:window-width="1614"
     inkscape:window-height="995"
     id="namedview5"
     showgrid="false"
     inkscape:zoom="4.6252264"
     inkscape:cx="-19.297939"
     inkscape:cy="36.458073"
     inkscape:window-x="943"
     inkscape:window-y="368"
     inkscape:window-maximized="0"
     inkscape:current-layer="svg3"
     inkscape:document-rotation="0" />
  <path
     id="Selection"
     fill="none"
     stroke="#000000"
     stroke-width="1.00404"
     d="M 70.279797,0.53808286 C 64.804985,1.5397723 60.215799,2.5214268 55.1838,5.0857497 27.286394,19.32976 32.036602,49.290266 32.036602,75.22398 c 0,10.407547 -0.87557,24.290945 2.053055,34.05741 6.21955,20.74496 27.041965,32.94553 48.26694,29.6099 5.122577,-0.80135 8.48395,-1.95328 13.083201,-4.34731 C 122.15972,120.60047 118.587,95.377946 118.587,70.215536 118.587,45.804388 122.28049,20.882378 97.4526,6.1976243 93.718852,3.9939097 89.602678,2.5013921 85.3758,1.5297549 79.488357,0.17747469 76.308132,-0.2332165 70.279797,0.53808286 Z M 64.241398,170.38439 c 0,0 0,22.03715 0,22.03715 -6.128973,0 -22.493038,-1.10187 -27.122478,1.85311 -6.149103,3.93664 -6.601985,13.12213 -0.925887,17.66979 2.978944,2.39404 6.310127,2.46415 9.933168,2.51425 0,0 56.358399,0 56.358399,0 4.16649,-0.01 8.48395,0.26043 11.94596,-2.51425 5.6761,-4.54766 5.22322,-13.73315 -0.92588,-17.66979 -4.62944,-2.95498 -20.993508,-1.85311 -27.12248,-1.85311 0,0 0,-22.03715 0,-22.03715 26.0255,-2.17368 49.37399,-22.53799 58.92471,-46.07767 2.50595,-6.18042 6.10886,-21.61644 5.29367,-28.047281 -0.74473,-5.849858 -4.84077,-9.926733 -10.87919,-9.926733 -11.73461,0 -10.28541,10.217221 -11.51321,17.940234 -0.8655,5.49926 -2.40529,10.03692 -4.85085,15.02532 -9.0274,18.4411 -26.568955,29.64999 -47.039134,30.68173 -21.426253,1.07182 -41.473739,-13.85334 -50.008012,-32.6851 -2.002734,-4.40741 -3.411695,-9.21553 -4.045727,-14.02363 -0.483072,-3.636133 0.07044,-7.662923 -1.61024,-10.998539 C 18.128154,87.264277 12.1602,84.950374 6.8766012,86.983808 -4.7473177,91.461353 1.2608889,112.5569 4.2197066,121.30165 12.623146,146.17356 37.501352,168.15062 64.241398,170.38439 Z"
     style="fill:#46aebb;fill-opacity:1;stroke:none" />
</svg>
