<?xml version="1.0" encoding="UTF-8" standalone="no"?>
<svg
   width="0.716667in"
   height="0.716667in"
   viewBox="0 0 215 215"
   version="1.1"
   id="svg4727"
   sodipodi:docname="remotesupport.svg"
   inkscape:version="1.2.2 (b0a8486541, 2022-12-01)"
   xmlns:inkscape="http://www.inkscape.org/namespaces/inkscape"
   xmlns:sodipodi="http://sodipodi.sourceforge.net/DTD/sodipodi-0.dtd"
   xmlns="http://www.w3.org/2000/svg"
   xmlns:svg="http://www.w3.org/2000/svg">
  <defs
     id="defs4731" />
  <sodipodi:namedview
     id="namedview4729"
     pagecolor="#ffffff"
     bordercolor="#111111"
     borderopacity="1"
     inkscape:showpageshadow="0"
     inkscape:pageopacity="0"
     inkscape:pagecheckerboard="1"
     inkscape:deskcolor="#d1d1d1"
     inkscape:document-units="in"
     showgrid="false"
     inkscape:zoom="14.927319"
     inkscape:cx="34.36652"
     inkscape:cy="34.36652"
     inkscape:window-width="2560"
     inkscape:window-height="1371"
     inkscape:window-x="0"
     inkscape:window-y="0"
     inkscape:window-maximized="1"
     inkscape:current-layer="svg4727" />
  <path
     id="Markering #1"
     fill="none"
     stroke="black"
     stroke-width="1"
     d="M 79.00,166.00            C 79.00,166.00 38.00,166.00 38.00,166.00              32.15,166.00 22.13,166.72 17.00,164.47              7.77,160.42 5.01,151.25 5.00,142.00              5.00,142.00 5.00,29.00 5.00,29.00              5.12,20.53 9.32,11.37 18.00,8.65              20.41,7.89 23.47,8.00 26.00,8.00              26.00,8.00 122.00,8.00 122.00,8.00              122.00,8.00 189.00,8.00 189.00,8.00              203.26,8.02 209.98,13.28 210.00,28.00              210.00,28.00 210.00,147.00 210.00,147.00              209.91,160.42 201.58,165.98 189.00,166.00              189.00,166.00 138.00,166.00 138.00,166.00              138.47,169.09 139.63,176.22 142.31,177.98              144.97,179.72 150.02,178.43 154.00,179.57              162.29,181.95 166.19,191.20 162.99,199.00              159.86,206.63 152.32,207.91 145.00,208.00              145.00,208.00 71.00,208.00 71.00,208.00              64.31,207.92 57.12,206.48 53.77,199.91              49.83,192.21 53.67,182.27 62.00,179.65              66.11,178.36 70.85,179.76 73.77,177.98              76.92,176.06 77.47,169.68 79.00,166.00 Z            M 22.02,18.60            C 16.64,21.57 16.08,24.15 16.00,30.00              16.00,30.00 16.00,75.00 16.00,75.00              16.00,75.00 16.00,121.00 16.00,121.00              16.14,128.49 18.26,127.99 25.00,128.00              25.00,128.00 127.00,128.00 127.00,128.00              127.00,128.00 182.00,128.00 182.00,128.00              185.39,128.00 197.00,128.90 198.98,126.40              200.23,124.81 200.00,120.99 200.00,119.00              200.00,119.00 200.00,33.00 200.00,33.00              199.98,21.75 199.03,18.02 187.00,18.00              187.00,18.00 77.00,18.00 77.00,18.00              77.00,18.00 42.00,18.00 42.00,18.00              36.34,18.00 27.23,17.48 22.02,18.60 Z            M 70.00,58.00            C 71.99,58.45 73.55,58.57 74.83,60.43              76.24,62.49 76.00,66.55 76.00,69.00              76.00,69.00 76.00,89.00 76.00,89.00              75.99,91.00 76.12,93.98 74.98,95.69              73.40,98.05 70.52,97.95 68.00,98.00              61.61,98.11 51.68,99.23 48.74,91.96              47.87,89.81 48.00,86.35 48.00,84.00              48.00,84.00 48.00,72.00 48.00,72.00              48.01,68.86 47.66,65.12 49.74,62.53              51.98,59.73 55.65,59.17 57.87,55.79              59.58,53.17 59.45,49.42 65.90,41.00              74.21,30.15 89.40,23.16 103.00,23.15              103.00,23.15 118.00,23.15 118.00,23.15              128.79,24.85 141.68,31.69 148.68,40.00              154.72,47.19 155.41,52.87 157.27,55.79              159.52,59.31 163.00,59.71 165.26,62.53              167.34,65.12 166.99,68.86 167.00,72.00              167.00,72.00 167.00,85.00 167.00,85.00              166.99,87.99 167.29,91.25 165.40,93.79              163.36,96.54 160.23,97.02 158.13,100.21              156.29,103.01 156.45,107.06 149.96,112.32              145.64,115.82 140.55,118.22 135.00,118.83              131.41,119.22 126.11,118.60 123.00,119.56              118.93,120.80 111.63,126.00 105.34,121.11              98.41,115.72 103.10,103.95 114.00,105.37              119.10,106.03 120.11,108.74 127.00,108.98              136.23,109.31 142.20,106.89 146.00,98.00              146.00,98.00 140.02,95.69 140.02,95.69              140.02,95.69 139.00,90.00 139.00,90.00              139.00,90.00 139.00,69.00 139.00,69.00              139.00,69.00 139.74,61.23 139.74,61.23              139.74,61.23 145.00,58.00 145.00,58.00              135.44,24.56 79.56,24.56 70.00,58.00 Z            M 16.00,138.00            C 16.00,142.19 15.42,148.18 18.01,151.66              21.33,156.12 28.01,155.99 33.00,156.00              33.00,156.00 56.00,156.00 56.00,156.00              56.00,156.00 184.00,156.00 184.00,156.00              188.47,155.99 194.17,156.15 197.49,152.58              199.83,150.07 201.44,141.42 198.40,139.02              196.92,137.85 193.82,138.01 192.00,138.00              192.00,138.00 163.00,138.00 163.00,138.00              163.00,138.00 135.00,138.00 135.00,138.00              135.00,138.00 87.00,138.00 87.00,138.00              87.00,138.00 16.00,138.00 16.00,138.00 Z            M 127.00,166.00            C 127.00,166.00 89.00,166.00 89.00,166.00              89.00,166.00 87.00,179.00 87.00,179.00              87.00,179.00 129.00,179.00 129.00,179.00              129.00,179.00 127.00,166.00 127.00,166.00 Z            M 63.00,190.00            C 63.30,198.42 64.73,197.00 82.00,197.00              82.00,197.00 144.00,197.00 144.00,197.00              146.14,197.00 149.88,197.21 151.67,195.98              152.67,195.29 153.29,194.32 153.26,193.08              153.16,189.89 149.24,190.04 147.00,190.00              147.00,190.00 121.00,190.00 121.00,190.00              121.00,190.00 97.00,190.00 97.00,190.00              97.00,190.00 63.00,190.00 63.00,190.00 Z"
     style="fill:#ffffff;fill-opacity:1;stroke:#ffffff;stroke-opacity:1;stroke-width:3.8999981;stroke-dasharray:none" />
</svg>
