<?xml version="1.0" encoding="UTF-8" standalone="no"?>
<svg
   xmlns:dc="http://purl.org/dc/elements/1.1/"
   xmlns:cc="http://creativecommons.org/ns#"
   xmlns:rdf="http://www.w3.org/1999/02/22-rdf-syntax-ns#"
   xmlns:svg="http://www.w3.org/2000/svg"
   xmlns="http://www.w3.org/2000/svg"
   xmlns:sodipodi="http://sodipodi.sourceforge.net/DTD/sodipodi-0.dtd"
   xmlns:inkscape="http://www.inkscape.org/namespaces/inkscape"
   width="20.607"
   height="20.068"
   viewBox="0 0 20.607 20.068"
   version="1.1"
   id="svg16"
   sodipodi:docname="search.svg"
   inkscape:version="1.0.2 (e86c870879, 2021-01-15)">
  <metadata
     id="metadata20">
    <rdf:RDF>
      <cc:Work
         rdf:about="">
        <dc:format>image/svg+xml</dc:format>
        <dc:type
           rdf:resource="http://purl.org/dc/dcmitype/StillImage" />
        <dc:title></dc:title>
      </cc:Work>
    </rdf:RDF>
  </metadata>
  <sodipodi:namedview
     pagecolor="#ffffff"
     bordercolor="#666666"
     borderopacity="1"
     objecttolerance="10"
     gridtolerance="10"
     guidetolerance="10"
     inkscape:pageopacity="0"
     inkscape:pageshadow="2"
     inkscape:window-width="1638"
     inkscape:window-height="1132"
     id="namedview18"
     showgrid="false"
     inkscape:pagecheckerboard="true"
     inkscape:zoom="40.711579"
     inkscape:cx="9.774888"
     inkscape:cy="8.6475153"
     inkscape:window-x="22"
     inkscape:window-y="123"
     inkscape:window-maximized="0"
     inkscape:current-layer="svg16" />
  <defs
     id="defs4">
    <style
       id="style2">.a,.d{fill:none;}.a{stroke:#dad5e3;stroke-width:1.8px;}.b{fill:#dad5e3;}.c{stroke:none;}</style>
  </defs>
  <circle
     class="c"
     cx="8.5"
     cy="8.5"
     r="8.5"
     id="circle6"
     style="fill:none;stroke-width:1.8px" />
  <circle
     class="d"
     cx="8.5"
     cy="8.5"
     r="7.5999999"
     id="circle8"
     style="stroke:#ffffff;stroke-width:1.3;stroke-opacity:1;stroke-miterlimit:4;stroke-dasharray:none" />
  <rect
     class="b"
     width="8.5872908"
     height="1.7346776"
     rx="1.0779525"
     transform="matrix(0.73701885,0.67587219,-0.68808412,0.72563093,0,0)"
     id="rect12"
     x="19.405233"
     y="-0.034550596"
     style="fill:#ffffff;fill-opacity:1;stroke-width:0.538662;stroke-miterlimit:4;stroke-dasharray:none" />
</svg>
