<?xml version="1.0" encoding="UTF-8" standalone="no"?>
<svg
   xmlns:dc="http://purl.org/dc/elements/1.1/"
   xmlns:cc="http://creativecommons.org/ns#"
   xmlns:rdf="http://www.w3.org/1999/02/22-rdf-syntax-ns#"
   xmlns:svg="http://www.w3.org/2000/svg"
   xmlns="http://www.w3.org/2000/svg"
   xmlns:sodipodi="http://sodipodi.sourceforge.net/DTD/sodipodi-0.dtd"
   xmlns:inkscape="http://www.inkscape.org/namespaces/inkscape"
   viewBox="0 0 627.78 627.78003"
   version="1.1"
   id="svg9"
   sodipodi:docname="file-folder.svg"
   width="627.78003"
   height="627.78003"
   inkscape:version="1.0.2 (e86c870879, 2021-01-15)">
  <metadata
     id="metadata13">
    <rdf:RDF>
      <cc:Work
         rdf:about="">
        <dc:format>image/svg+xml</dc:format>
        <dc:type
           rdf:resource="http://purl.org/dc/dcmitype/StillImage" />
        <dc:title />
      </cc:Work>
    </rdf:RDF>
  </metadata>
  <sodipodi:namedview
     pagecolor="#ffffff"
     bordercolor="#666666"
     borderopacity="1"
     objecttolerance="10"
     gridtolerance="10"
     guidetolerance="10"
     inkscape:pageopacity="0"
     inkscape:pageshadow="2"
     inkscape:window-width="1753"
     inkscape:window-height="1190"
     id="namedview11"
     showgrid="false"
     inkscape:pagecheckerboard="true"
     inkscape:zoom="1.0794414"
     inkscape:cx="95.79633"
     inkscape:cy="213.58132"
     inkscape:window-x="0"
     inkscape:window-y="27"
     inkscape:window-maximized="0"
     inkscape:current-layer="svg9"
     inkscape:document-rotation="0" />
  <defs
     id="defs4">
    <style
       id="style2">.cls-1{fill:#a7c8be;}</style>
  </defs>
  <g
     id="Layer_2"
     data-name="Layer 2"
     transform="translate(0,93.757635)"
     style="fill:#28acba;fill-opacity:1">
    <g
       id="Layer_1-2"
       data-name="Layer 1"
       style="fill:#28acba;fill-opacity:1">
      <path
         id="Icon_ionic-md-folder-open"
         data-name="Icon ionic-md-folder-open"
         class="cls-1"
         d="M 568,80.28 H 313.89 L 254.11,0 H 59.79 C 26.9,0 0,32.14 0,71.36 v 392.47 c 0,39.26 26.9,71.36 59.79,71.36 H 568 c 32.89,0 59.79,-32.14 59.79,-71.36 V 151.64 C 627.78,112.39 600.88,80.28 568,80.28 Z m 15,383.55 a 16.81,16.81 0 0 1 -15,17.84 H 59.79 A 16.82,16.82 0 0 1 44.84,463.83 v -330 H 568 a 16.8,16.8 0 0 1 15,17.84 z"
         style="fill:#28acba;fill-opacity:1" />
    </g>
  </g>
</svg>
