{
		"Start Support Session": "Start supportsession",
		"Restart Support Session": "Genstart supportsession",		
		"with display name": "med display navn",
		"Type Your Display Name": "Skriv dit display navn",
		"Display Name": "Display navn",
		"Hi! Welcome to Simple Remote Support": "Hej! Velkommen til Simple Remote Support",
		"Support": "Support",
		"History": "Historik",
		"Settings": "Indstilling",
		"Theme": "Tema",
		"Mic only": "Kun mikrofon",
		"Mic and Camera": "Mikrofon og kamera",
		"Chat": "Chat",
		"Files": "Filer",
		"Fullscreen": "Fuldskærm",
		"Window": "Vindue",
		"Invite": "Inviter",
		"Share desktop": "Del Skrivebord",
		"Leave": "Forlad",
		"Your latest sessions": "Dine seneste sessioner",
		"Originator": "Initiativ tager",
		"Date": "Dato",
		"Name": "Navn",
		"Link copied to clipboard": "Link er kopieret til udklips holderen",
		"Send link with you favorite message service": "Send linket med din favorit besked tjeneste",
		"Default": "Standard",
		"Stop sharing": "Stop deling"
}
