<?xml version="1.0" encoding="UTF-8" standalone="no"?>
<svg
   xmlns:dc="http://purl.org/dc/elements/1.1/"
   xmlns:cc="http://creativecommons.org/ns#"
   xmlns:rdf="http://www.w3.org/1999/02/22-rdf-syntax-ns#"
   xmlns:svg="http://www.w3.org/2000/svg"
   xmlns="http://www.w3.org/2000/svg"
   xmlns:sodipodi="http://sodipodi.sourceforge.net/DTD/sodipodi-0.dtd"
   xmlns:inkscape="http://www.inkscape.org/namespaces/inkscape"
   viewBox="0 0 898.99329 880.02624"
   version="1.1"
   id="svg100"
   sodipodi:docname="community.svg"
   width="898.99329"
   height="880.02625"
   inkscape:export-filename="/home/magnus/Projects/NodeProjects/jambo/jambo-backend/public/icons/jambo512.png"
   inkscape:export-xdpi="54.27"
   inkscape:export-ydpi="54.27"
   inkscape:version="1.0.2 (e86c870879, 2021-01-15)">
  <metadata
     id="metadata104">
    <rdf:RDF>
      <cc:Work
         rdf:about="">
        <dc:format>image/svg+xml</dc:format>
        <dc:type
           rdf:resource="http://purl.org/dc/dcmitype/StillImage" />
        <dc:title />
      </cc:Work>
    </rdf:RDF>
  </metadata>
  <sodipodi:namedview
     pagecolor="#ffffff"
     bordercolor="#666666"
     borderopacity="1"
     objecttolerance="10"
     gridtolerance="10"
     guidetolerance="10"
     inkscape:pageopacity="0"
     inkscape:pageshadow="2"
     inkscape:window-width="1772"
     inkscape:window-height="1133"
     id="namedview102"
     showgrid="false"
     inkscape:pagecheckerboard="true"
     inkscape:zoom="0.6487801"
     inkscape:cx="505.54867"
     inkscape:cy="426.39766"
     inkscape:window-x="369"
     inkscape:window-y="128"
     inkscape:window-maximized="0"
     inkscape:current-layer="svg100"
     inkscape:document-rotation="0" />
  <defs
     id="defs86">
    <style
       id="style84">.cls-1{fill:#fff;}</style>
  </defs>
  <circle
     class="cls-1"
     cx="452.43484"
     cy="119.7089"
     id="circle88"
     style="fill:#ffffff;fill-opacity:1;stroke:none;stroke-width:0.786102;stroke-opacity:1"
     r="100" />
  <circle
     class="cls-1"
     cx="120.54769"
     cy="355.44116"
     id="circle90"
     style="fill:#ffffff;fill-opacity:1;stroke:none;stroke-width:0.786102;stroke-opacity:1"
     r="100" />
  <circle
     class="cls-1"
     cx="775.60437"
     cy="370.09695"
     id="circle92"
     style="fill:#ffffff;fill-opacity:1;stroke:none;stroke-width:0.786102;stroke-opacity:1"
     r="100" />
  <circle
     class="cls-1"
     cx="242.12973"
     cy="741.22363"
     id="circle94"
     style="fill:#ffffff;fill-opacity:1;stroke:none;stroke-width:0.786102;stroke-opacity:1"
     r="100" />
  <circle
     class="cls-1"
     cx="646.01764"
     cy="741.22351"
     id="circle96"
     style="fill:#ffffff;fill-opacity:1;stroke:none;stroke-width:0.786102;stroke-opacity:1"
     r="100" />
  <path
     style="fill:#ffffff;fill-opacity:1;stroke:#ffffff;stroke-width:40;stroke-linecap:round;stroke-linejoin:round;stroke-miterlimit:4;stroke-dasharray:none;stroke-opacity:1"
     d="m 402.99537,804.44108 c 34.07127,6.1852 50.67344,5.43876 85.26892,0.40664"
     id="path14"
     sodipodi:nodetypes="cc" />
  <path
     style="fill:#ffffff;fill-opacity:1;stroke:#ffffff;stroke-width:40;stroke-linecap:round;stroke-linejoin:round;stroke-miterlimit:4;stroke-dasharray:none;stroke-opacity:1"
     d="m 755.01413,619.25252 c 16.94525,-30.19879 21.64699,-46.13876 28.15735,-80.48676"
     id="path839"
     sodipodi:nodetypes="cc" />
  <path
     style="fill:#ffffff;fill-opacity:1;stroke:#ffffff;stroke-width:40;stroke-linecap:round;stroke-linejoin:round;stroke-miterlimit:4;stroke-dasharray:none;stroke-opacity:1"
     d="m 109.99623,527.61865 c 5.14918,34.24317 11.21712,49.71473 27.15187,80.8315"
     id="path841"
     sodipodi:nodetypes="cc" />
  <path
     style="fill:#ffffff;fill-opacity:1;stroke:#ffffff;stroke-width:40;stroke-linecap:round;stroke-linejoin:round;stroke-miterlimit:4;stroke-dasharray:none;stroke-opacity:1"
     d="M 282.78009,164.17668 C 252.00044,180.04243 239.29441,190.7544 214.937,215.83202"
     id="path843"
     sodipodi:nodetypes="cc" />
  <path
     style="fill:#ffffff;fill-opacity:1;stroke:#ffffff;stroke-width:40;stroke-linecap:round;stroke-linejoin:round;stroke-miterlimit:4;stroke-dasharray:none;stroke-opacity:1"
     d="m 685.90829,213.90619 c -22.91895,-25.95822 -36.41585,-35.6548 -66.69387,-53.13082"
     id="path845"
     sodipodi:nodetypes="cc" />
</svg>
